<?xml version="1.0" encoding="UTF-8"?>
<session version="1.0">
<refactoring accessors="true" comment="Delete element from project &apos;Relatorios&apos;&#x0D;&#x0A;- Original project: &apos;Relatorios&apos;&#x0D;&#x0A;- Original element: &apos;DataAdapter.xml&apos;" description="Delete element" element1="DataAdapter/DataAdapter.xml" elements="0" flags="589830" id="org.eclipse.jdt.ui.delete" resources="1" stamp="1505312552956" subPackages="false" version="1.0"/>
</session>